<?xml version="1.0" encoding="UTF-8" standalone="no"?>
<!-- Created with Inkscape (http://www.inkscape.org/) -->

<svg
   xmlns:dc="http://purl.org/dc/elements/1.1/"
   xmlns:cc="http://creativecommons.org/ns#"
   xmlns:rdf="http://www.w3.org/1999/02/22-rdf-syntax-ns#"
   xmlns:svg="http://www.w3.org/2000/svg"
   xmlns="http://www.w3.org/2000/svg"
   xmlns:xlink="http://www.w3.org/1999/xlink"
   xmlns:sodipodi="http://sodipodi.sourceforge.net/DTD/sodipodi-0.dtd"
   xmlns:inkscape="http://www.inkscape.org/namespaces/inkscape"
   width="48.270039mm"
   height="56.527401mm"
   viewBox="0 0 171.03557 200.29394"
   id="svg2"
   version="1.1"
   inkscape:version="0.91 r13725"
   sodipodi:docname="logo-chantsfoco.svg"
   inkscape:export-filename="/home/alex/data/perso/focolare/chants/wiki/logo-chantsfoco.png"
   inkscape:export-xdpi="200"
   inkscape:export-ydpi="200">
  <defs
     id="defs4">
    <linearGradient
       inkscape:collect="always"
       id="linearGradient4248">
      <stop
         style="stop-color:#ffffff;stop-opacity:1;"
         offset="0"
         id="stop4250" />
      <stop
         style="stop-color:#ffffff;stop-opacity:0"
         offset="1"
         id="stop4252" />
    </linearGradient>
    <linearGradient
       inkscape:collect="always"
       xlink:href="#linearGradient4248"
       id="linearGradient4727-9"
       gradientUnits="userSpaceOnUse"
       gradientTransform="translate(-232.31583,-148.52179)"
       x1="219.85587"
       y1="197.26808"
       x2="333.85541"
       y2="118.72872" />
    <linearGradient
       inkscape:collect="always"
       xlink:href="#linearGradient4248"
       id="linearGradient4818"
       gradientUnits="userSpaceOnUse"
       gradientTransform="translate(-9.091373,-7.071068)"
       x1="343.09448"
       y1="139.68939"
       x2="387.39349"
       y2="57.109417" />
    <linearGradient
       inkscape:collect="always"
       xlink:href="#linearGradient4248"
       id="linearGradient4818-4"
       gradientUnits="userSpaceOnUse"
       gradientTransform="translate(-342.29449,-27.250756)"
       x1="343.09448"
       y1="139.68939"
       x2="387.39349"
       y2="57.109417" />
    <linearGradient
       inkscape:collect="always"
       xlink:href="#linearGradient4248"
       id="linearGradient4848"
       gradientUnits="userSpaceOnUse"
       gradientTransform="translate(-9.091373,-7.071068)"
       x1="343.09448"
       y1="139.68939"
       x2="387.39349"
       y2="57.109417" />
  </defs>
  <sodipodi:namedview
     id="base"
     pagecolor="#ffffff"
     bordercolor="#666666"
     borderopacity="1.0"
     inkscape:pageopacity="0.0"
     inkscape:pageshadow="2"
     inkscape:zoom="1.979899"
     inkscape:cx="71.652314"
     inkscape:cy="71.227991"
     inkscape:document-units="px"
     inkscape:current-layer="layer1"
     showgrid="false"
     fit-margin-top="5"
     fit-margin-left="5"
     fit-margin-right="5"
     fit-margin-bottom="5"
     inkscape:window-width="1920"
     inkscape:window-height="1059"
     inkscape:window-x="0"
     inkscape:window-y="21"
     inkscape:window-maximized="1" />
  <metadata
     id="metadata7">
    <rdf:RDF>
      <cc:Work
         rdf:about="">
        <dc:format>image/svg+xml</dc:format>
        <dc:type
           rdf:resource="http://purl.org/dc/dcmitype/StillImage" />
        <dc:title></dc:title>
      </cc:Work>
    </rdf:RDF>
  </metadata>
  <g
     inkscape:label="Calque 1"
     inkscape:groupmode="layer"
     id="layer1"
     transform="translate(-353.37235,-85.469723)">
    <g
       id="g4342"
       transform="translate(88.893424,-105.05586)">
      <text
         xml:space="preserve"
         style="color:#000000;font-style:normal;font-variant:normal;font-weight:normal;font-stretch:normal;font-size:40.01377106px;line-height:125%;font-family:'URW Gothic L';-inkscape-font-specification:'URW Gothic L Book';text-indent:0;text-align:start;text-decoration:none;text-decoration-line:none;letter-spacing:0px;word-spacing:0px;text-transform:none;direction:ltr;block-progression:tb;writing-mode:lr-tb;text-anchor:start;display:inline;overflow:visible;visibility:visible;fill:#6e6e6e;fill-opacity:1;fill-rule:nonzero;stroke:none;stroke-width:1px;stroke-linecap:butt;stroke-linejoin:miter;stroke-opacity:1;marker:none;enable-background:accumulate"
         x="-424.07156"
         y="557.18951"
         id="text4268"
         sodipodi:linespacing="125%"
         transform="scale(1.074368,0.93077979)"><tspan
           sodipodi:role="line"
           x="-424.07156"
           y="557.18951"
           id="tspan4270"
           style="font-style:normal;font-variant:normal;font-weight:normal;font-stretch:normal;font-family:'Droid Sans';-inkscape-font-specification:'Droid Sans';fill:#6e6e6e;fill-opacity:1">mouvement des</tspan></text>
      <text
         transform="scale(1.0161118,0.98414365)"
         sodipodi:linespacing="125%"
         id="text4272"
         y="617.00598"
         x="-454.34241"
         style="color:#000000;font-style:normal;font-variant:normal;font-weight:normal;font-stretch:normal;font-size:94.4703064px;line-height:125%;font-family:'URW Gothic L';-inkscape-font-specification:'URW Gothic L Book';text-indent:0;text-align:start;text-decoration:none;text-decoration-line:none;letter-spacing:0px;word-spacing:0px;text-transform:none;direction:ltr;block-progression:tb;writing-mode:lr-tb;text-anchor:start;display:inline;overflow:visible;visibility:visible;fill:#6e6e6e;fill-opacity:1;fill-rule:nonzero;stroke:none;stroke-width:1px;stroke-linecap:butt;stroke-linejoin:miter;stroke-opacity:1;marker:none;enable-background:accumulate"
         xml:space="preserve"><tspan
           style="font-style:normal;font-variant:normal;font-weight:normal;font-stretch:normal;font-family:'Droid Sans';-inkscape-font-specification:'Droid Sans';fill:#6e6e6e;fill-opacity:1"
           id="tspan4274"
           y="617.00598"
           x="-454.34241"
           sodipodi:role="line">focolari</tspan></text>
    </g>
    <path
       style="fill:#ffffff;fill-opacity:1;stroke-width:0"
       d="m 556.35298,114.79868 -8.98891,5.07292 c 0.40862,2.25094 0.69176,4.52556 1.00791,6.7901 0.37899,2.71776 0.71271,5.4461 1.08212,8.16516 0.72824,3.2723 1.43305,6.54316 1.98985,9.84543 0.67013,4.09413 1.59941,8.14731 2.3048,12.23646 0.47547,3.35172 1.06347,6.67644 1.79866,9.98543 0.51674,2.28771 0.88412,4.59804 1.24354,6.91135 0.32597,2.11092 0.57203,4.2337 0.86481,6.34902 0.37085,2.4505 0.67893,4.91337 0.99098,7.37204 0.30746,2.41456 0.67541,4.81918 0.96362,7.23601 0.25974,2.06331 0.52469,4.12941 0.79672,6.19102 0.24067,1.89283 0.5001,3.78139 0.77025,5.67016 0.23451,1.72285 0.41655,3.45482 0.64943,5.1779 0.21327,1.52049 0.4064,3.03873 0.59469,4.56257 0.0904,0.61118 0.17094,1.22456 0.2476,1.83778 a 15.777502,23.161567 55.654954 0 0 -17.06931,3.96286 15.777502,23.161567 55.654954 0 0 -12.95994,25.97685 15.777502,23.161567 55.654954 0 0 26.87435,2.5437 15.777502,23.161567 55.654954 0 0 13.98193,-22.51475 c -0.006,-0.88104 -0.11614,-1.74422 -0.23548,-2.61749 -0.15601,-1.1976 -0.30087,-2.40412 -0.45635,-3.60168 -0.14985,-1.06777 -0.29805,-2.13656 -0.43661,-3.20583 -0.16101,-1.19864 -0.32944,-2.39159 -0.47745,-3.59184 -0.16306,-1.28261 -0.3693,-2.55885 -0.52211,-3.84279 -0.21655,-1.51701 -0.42463,-3.03229 -0.61565,-4.55287 -0.22461,-1.71554 -0.50223,-3.43276 -0.7231,-5.14876 -0.23324,-1.89527 -0.4725,-3.78895 -0.73885,-5.67968 -0.27752,-2.05582 -0.55037,-4.10668 -0.83911,-6.16105 -0.35559,-2.40749 -0.64198,-4.82582 -0.97406,-7.2363 -0.34242,-2.45867 -0.67853,-4.91471 -0.95945,-7.38151 -0.26916,-2.12082 -0.58833,-4.24313 -0.88527,-6.36002 -0.35185,-2.3191 -0.78703,-4.62089 -1.34788,-6.90401 -0.75353,-3.28005 -1.40663,-6.5708 -1.90524,-9.89498 -0.76805,-4.07657 -1.63365,-8.14062 -2.28397,-12.23592 -0.54638,-3.2458 -1.13702,-6.47949 -1.80679,-9.70484 4.35502,3.48176 8.83475,6.79918 13.38407,10.02266 3.55295,2.56113 7.36035,4.76795 10.70897,7.60416 0.69848,0.93017 3.15116,2.12413 3.27206,3.34092 0.0215,0.18485 -0.0824,0.36632 -0.13097,0.54718 -0.61832,1.77985 -1.93885,3.29672 -3.31582,4.55224 -1.49488,1.45331 -2.92015,2.99263 -4.08013,4.72752 -0.70756,1.40035 -1.35104,1.97389 -2.51927,2.92177 0.2381,-0.11208 -0.0993,0.20886 -0.44046,0.51857 -0.88231,0.71096 -2.35174,1.79271 -2.67248,2.10568 -0.47413,0.72459 -0.24377,0.35203 -0.70829,1.10266 l 7.81956,-4.55559 c -0.26421,0.2052 -0.59158,0.44151 -4.17055,3.1959 1.68063,-1.28103 3.25356,-2.41627 4.73141,-3.52279 l 0.90003,-0.52374 c 0.5254,-0.64968 0.24207,-0.3618 0.82572,-0.90302 1.04361,-0.82928 2.09453,-1.62623 3.1131,-2.6029 0.99947,-0.89471 1.62973,-2.02301 2.37955,-3.1235 1.25142,-1.61271 2.59984,-3.13581 4.08509,-4.54011 1.37833,-1.51653 2.79458,-3.20135 2.94345,-5.33281 -0.0514,-0.31339 -0.0436,-0.64143 -0.14953,-0.94029 -0.58084,-1.646 -2.52362,-2.4244 -3.64913,-3.6118 -3.4892,-2.73555 -7.3797,-4.88097 -10.96208,-7.48676 -4.59494,-3.22776 -9.13158,-6.55146 -13.48582,-10.09841 -3.23379,-2.65726 -6.63823,-5.16003 -9.47303,-8.25453 l -0.0111,0.004 -0.25449,0.20274 c -0.0207,-0.19948 -0.0593,-0.39568 -0.0766,-0.59488 z"
       id="path4645"
       inkscape:connector-curvature="0" />
    <g
       id="g4850">
      <path
         style="fill:#ffb200;fill-opacity:1;stroke-width:0"
         d="m 498.88776,186.79637 -7.04991,-2.06812 c -0.74721,1.53216 -1.57254,3.00815 -2.37565,4.49668 -0.96411,1.7862 -1.95727,3.5533 -2.92711,5.33493 -1.01357,2.30214 -2.03921,4.59042 -3.15851,6.81443 -1.39862,2.74606 -2.6393,5.61278 -4.0167,8.37561 -1.18462,2.20737 -2.29669,4.46176 -3.32227,6.78905 -0.70448,1.61371 -1.49958,3.15731 -2.30026,4.69825 -0.73171,1.40495 -1.5118,2.77227 -2.26337,4.1613 -0.8535,1.62678 -1.74634,3.22575 -2.6352,4.8245 -0.87237,1.57064 -1.70773,3.16922 -2.5915,4.73043 -0.74709,1.34049 -1.49256,2.68549 -2.23226,4.03182 -0.68408,1.23106 -1.35615,2.4701 -2.0225,3.71522 -0.61427,1.12911 -1.26089,2.23428 -1.87613,3.36262 -0.53871,1 -1.08735,1.98749 -1.64101,2.97552 -0.21404,0.40455 -0.43432,0.80493 -0.65664,1.20302 a 16.453401,12.29366 20.620729 0 0 -10.94768,-7.21339 16.453401,12.29366 20.620729 0 0 -18.19399,7.83409 16.453401,12.29366 20.620729 0 0 13.45745,16.44698 16.453401,12.29366 20.620729 0 0 17.25783,-5.25828 c 0.37603,-0.51371 0.68757,-1.07554 0.99866,-1.64812 0.43079,-0.78096 0.87146,-1.56091 1.3025,-2.34158 0.37828,-0.7023 0.75787,-1.40427 1.1429,-2.10114 0.42852,-0.78438 0.85059,-1.56957 1.28685,-2.34762 0.46355,-0.83417 0.90097,-1.68873 1.37065,-2.51794 0.53541,-0.99983 1.07469,-1.99391 1.62548,-2.98157 0.6165,-1.11936 1.20499,-2.26924 1.82371,-3.38679 0.68914,-1.22833 1.37434,-2.45909 2.0436,-3.70324 0.73423,-1.34605 1.46887,-2.68661 2.19641,-4.03807 0.84328,-1.59336 1.72868,-3.15443 2.58597,-4.7364 0.87242,-1.61569 1.74713,-3.22632 2.65636,-4.81243 0.76673,-1.37907 1.50703,-2.78684 2.25701,-4.17912 0.80728,-1.54001 1.56198,-3.11646 2.2406,-4.75208 1.0032,-2.32074 2.0654,-4.59175 3.22563,-6.79603 1.33807,-2.79043 2.61791,-5.62798 4.02777,-8.36368 1.10064,-2.1855 2.1721,-4.3886 3.19715,-6.63098 0.86012,4.44418 1.8585,8.8626 2.93496,13.26534 0.82186,3.46378 1.93405,6.86398 2.52704,10.37332 -0.0219,0.9282 0.79237,2.98665 0.33427,3.75919 -0.0679,0.11914 -0.20221,0.16642 -0.30634,0.24415 -1.10058,0.68701 -2.46824,0.83035 -3.75403,0.79082 -1.43473,0.01 -2.86878,0.10741 -4.24332,0.46658 -0.98563,0.41735 -1.58076,0.39137 -2.62121,0.28963 0.17713,0.0677 -0.14363,0.0657 -0.46163,0.055 -0.78364,-0.0795 -2.04472,-0.27131 -2.35304,-0.26864 -0.56848,0.15578 -0.28357,0.0678 -0.85795,0.24444 l 6.19416,1.71645 c -0.23135,-0.0282 -0.51029,-0.0737 -3.6333,-0.47144 1.46119,0.19395 2.80133,0.41237 4.07764,0.59447 l 0.71267,0.1979 c 0.56402,-0.0838 0.28673,-0.0748 0.83565,-0.0632 0.92187,0.10085 1.83381,0.22448 2.80556,0.22596 0.92615,0.0383 1.75286,-0.26443 2.63236,-0.48446 1.37149,-0.2374 2.75693,-0.3688 4.16534,-0.35519 1.39883,-0.111 2.8906,-0.29837 3.88825,-1.45067 0.107,-0.21024 0.25235,-0.39604 0.3236,-0.62824 0.39367,-1.27753 -0.32337,-2.81104 -0.42195,-4.12624 -0.71236,-3.52935 -1.89592,-6.94026 -2.71457,-10.44632 -1.09921,-4.43065 -2.12577,-8.88441 -2.95748,-13.36593 -0.60773,-3.34165 -1.37435,-6.68886 -1.57794,-10.06164 l -0.008,-0.004 -0.22504,-0.0243 c 0.0746,-0.12716 0.13814,-0.26238 0.2145,-0.38744 z"
         id="path4657"
         inkscape:connector-curvature="0" />
      <path
         inkscape:connector-curvature="0"
         id="path4659"
         d="M 491.79697,106.73332 479.7061,103.187 c -1.28135,2.62776 -2.69669,5.15917 -4.07394,7.71206 -1.65329,3.06344 -3.35643,6.09413 -5.01959,9.14971 -1.7381,3.94832 -3.49691,7.87281 -5.41635,11.68713 -2.39845,4.70964 -4.52602,9.6262 -6.88804,14.3646 -2.03146,3.78575 -3.93848,7.65216 -5.69722,11.6436 -1.20805,2.7676 -2.57151,5.41495 -3.94457,8.05771 -1.25479,2.40959 -2.59253,4.75464 -3.88138,7.13691 -1.46367,2.79002 -2.99476,5.53236 -4.51904,8.27429 -1.49602,2.69375 -2.92853,5.43538 -4.44408,8.11296 -1.28117,2.29901 -2.55956,4.60577 -3.82804,6.91482 -1.1731,2.11133 -2.32561,4.23634 -3.46832,6.37182 -1.0534,1.9365 -2.16227,3.83192 -3.21733,5.76709 -0.92381,1.71507 -1.86466,3.40865 -2.81413,5.10318 -0.36703,0.69384 -0.74478,1.38048 -1.12604,2.06323 a 28.217826,21.083809 20.618076 0 0 -18.776,-12.37017 28.217826,21.083809 20.618076 0 0 -31.20235,13.43701 28.217826,21.083809 20.618076 0 0 23.08105,28.20576 28.217826,21.083809 20.618076 0 0 29.59699,-9.01939 c 0.64486,-0.88107 1.17911,-1.84464 1.71259,-2.82666 0.73875,-1.3394 1.49444,-2.67704 2.23365,-4.01592 0.64867,-1.20449 1.29962,-2.40841 1.95989,-3.6036 0.73487,-1.34524 1.45865,-2.6919 2.20679,-4.02632 0.79492,-1.43064 1.54505,-2.89623 2.35048,-4.31839 0.91818,-1.71475 1.84297,-3.41967 2.78751,-5.11358 1.05719,-1.91976 2.06639,-3.89186 3.1274,-5.80852 1.18178,-2.10667 2.35682,-4.21749 3.5045,-6.35128 1.25913,-2.30854 2.51894,-4.60769 3.76657,-6.92552 1.4461,-2.7327 2.96445,-5.41003 4.4346,-8.12322 1.49608,-2.77098 2.9961,-5.5333 4.55531,-8.25359 1.31485,-2.36517 2.58435,-4.77959 3.8705,-7.16742 1.38435,-2.64123 2.67855,-5.34489 3.84227,-8.15008 1.72033,-3.9802 3.54183,-7.87505 5.53147,-11.65553 2.29457,-4.78576 4.48928,-9.65229 6.907,-14.34417 1.88745,-3.74823 3.72486,-7.52668 5.48264,-11.37248 1.47548,7.62178 3.18804,15.19934 5.03455,22.75003 1.40987,5.94035 3.31749,11.77165 4.33467,17.79019 -0.0376,1.59191 1.35918,5.1221 0.57367,6.44706 -0.1164,0.20432 -0.34677,0.2854 -0.52537,0.41873 -1.88745,1.1783 -4.233,1.42427 -6.43815,1.35657 -2.46058,0.0162 -4.91999,0.18443 -7.2773,0.80052 -1.69033,0.71583 -2.7111,0.67107 -4.4954,0.49703 0.30382,0.116 -0.24632,0.11268 -0.79167,0.0945 -1.34395,-0.13634 -3.50675,-0.46513 -4.03554,-0.46051 -0.97495,0.26722 -0.48611,0.11707 -1.47135,0.41925 l 10.6232,2.94326 c -0.39678,-0.0485 -0.87516,-0.12636 -6.2312,-0.80823 2.50598,0.3325 4.80435,0.70701 6.99326,1.0192 l 1.22226,0.33937 c 0.9673,-0.14374 0.49176,-0.12836 1.43313,-0.10856 1.58104,0.17287 3.14505,0.38484 4.8116,0.3873 1.58835,0.0656 3.00617,-0.45365 4.5145,-0.83106 2.35209,-0.40726 4.72814,-0.63279 7.14361,-0.6095 2.399,-0.19041 4.95737,-0.51188 6.66828,-2.4882 0.1835,-0.3606 0.43274,-0.67925 0.55492,-1.07748 0.67505,-2.19102 -0.55485,-4.82095 -0.72399,-7.07655 -1.222,-6.05282 -3.25209,-11.90248 -4.65636,-17.91535 -1.88571,-7.59851 -3.6465,-15.23672 -5.07316,-22.92254 -1.04256,-5.73094 -2.35758,-11.47139 -2.707,-17.25573 l -0.0134,-0.007 -0.38593,-0.0416 c 0.12796,-0.21806 0.23687,-0.44997 0.36782,-0.66444 z"
         style="fill:#0186d1;fill-opacity:1;stroke-width:0" />
      <path
         inkscape:connector-curvature="0"
         id="path4789"
         transform="translate(92.716212,83.00657)"
         d="m 386.99023,20.179688 c -1.28135,2.627759 -2.69696,5.16 -4.07421,7.71289 -1.65329,3.06344 -3.35638,6.094811 -5.01954,9.150391 -1.7381,3.94832 -3.49657,7.871227 -5.41601,11.685547 -2.39845,4.70964 -4.52665,9.626834 -6.88867,14.365234 -2.03146,3.78575 -3.93853,7.653091 -5.69727,11.644531 -1.20805,2.7676 -2.57225,5.413881 -3.94531,8.056641 -1.25479,2.40959 -2.59201,4.754449 -3.88086,7.136719 -1.46367,2.79002 -2.99525,5.53346 -4.51953,8.27539 -1.49602,2.693749 -2.92781,5.435699 -4.44336,8.113279 -1.28117,2.29901 -2.55965,4.60502 -3.82813,6.91407 -1.1731,2.11133 -2.32604,4.23561 -3.46875,6.37109 -0.85326,1.56858 -1.73749,3.11424 -2.60547,4.67187 2.53197,4.05253 5.33084,7.65884 8.27149,10.34961 0.11454,-0.20738 0.22329,-0.4192 0.33984,-0.625 0.91818,-1.71475 1.84257,-3.41937 2.78711,-5.11328 1.05719,-1.91976 2.0679,-3.89193 3.12891,-5.80859 1.18178,-2.10667 2.35622,-4.21777 3.50391,-6.35156 1.25913,-2.30854 2.51799,-4.60796 3.76562,-6.92579 1.4461,-2.7327 2.9654,-5.40985 4.43555,-8.12304 1.49608,-2.770983 2.99547,-5.533619 4.55468,-8.253909 1.31485,-2.36517 2.58495,-4.780139 3.8711,-7.167969 1.38435,-2.64123 2.67807,-5.343247 3.84179,-8.148437 1.72033,-3.9802 3.54161,-7.87577 5.53126,-11.65625 2.29457,-4.78576 4.49048,-9.65187 6.9082,-14.34375 1.88745,-3.74823 3.72464,-7.527247 5.48242,-11.373047 1.47548,7.62178 3.18865,15.19931 5.03516,22.75 1.40987,5.94035 3.3168,11.772476 4.33398,17.791016 -0.0376,1.59191 1.35973,5.122305 0.57422,6.447265 -0.1164,0.20432 -0.34679,0.284639 -0.52539,0.417969 -1.88745,1.1783 -4.2343,1.425122 -6.43945,1.357422 -2.46058,0.0162 -4.92004,0.182738 -7.27735,0.798828 -1.69033,0.71583 -2.70984,0.672087 -4.49414,0.498047 0.30382,0.116 -0.24762,0.11193 -0.79297,0.09375 -1.34395,-0.13634 -3.50636,-0.465557 -4.03515,-0.460937 -0.97495,0.26722 -0.48547,0.117741 -1.47071,0.419921 l 10.62305,2.94336 c -0.39678,-0.0485 -0.87638,-0.126724 -6.23242,-0.808594 2.50598,0.3325 4.80523,0.707341 6.99414,1.019531 l 1.22265,0.339844 c 0.96731,-0.14374 0.49223,-0.129175 1.4336,-0.109375 1.58104,0.17287 3.144,0.386212 4.81055,0.388672 1.58835,0.0656 3.00729,-0.454621 4.51562,-0.832031 2.35209,-0.40726 4.72711,-0.632665 7.14258,-0.609375 2.399,-0.19041 4.95706,-0.511962 6.66797,-2.488282 0.1835,-0.3606 0.4325,-0.679895 0.55468,-1.078125 0.67505,-2.19102 -0.55351,-4.820572 -0.72265,-7.076172 -1.222,-6.052819 -3.25198,-11.901192 -4.65625,-17.914062 -1.88571,-7.59851 -3.64756,-15.238008 -5.07422,-22.923828 -1.04256,-5.73094 -2.35761,-11.471519 -2.70703,-17.25586 l -0.0137,-0.0059 -0.38477,-0.04297 c 0.12796,-0.21806 0.23624,-0.449592 0.36719,-0.664062 l 0.006,-0.0059 -12.08985,-3.546874 z"
         style="color:#000000;clip-rule:nonzero;display:inline;overflow:visible;visibility:visible;opacity:0.347;isolation:auto;mix-blend-mode:normal;color-interpolation:sRGB;color-interpolation-filters:linearRGB;solid-color:#000000;solid-opacity:1;fill:url(#linearGradient4848);fill-opacity:1;fill-rule:evenodd;stroke:none;stroke-width:1px;stroke-linecap:butt;stroke-linejoin:miter;stroke-miterlimit:4;stroke-dasharray:none;stroke-dashoffset:0;stroke-opacity:1;color-rendering:auto;image-rendering:auto;shape-rendering:auto;text-rendering:auto;enable-background:accumulate" />
      <path
         inkscape:connector-curvature="0"
         id="path4822"
         transform="translate(92.716212,83.00657)"
         d="m 399.12109,101.72266 c -0.74721,1.53216 -1.57189,3.00756 -2.375,4.49609 -0.96411,1.7862 -1.95789,3.55235 -2.92773,5.33398 -1.01357,2.30214 -2.0389,4.59045 -3.1582,6.81446 -1.39862,2.74606 -2.63823,5.61412 -4.01563,8.37695 -1.18462,2.20737 -2.29668,4.46177 -3.32226,6.78906 -0.70448,1.61371 -1.50011,3.15633 -2.30079,4.69727 -0.73171,1.40495 -1.5121,2.77308 -2.26367,4.16211 -0.8535,1.62678 -1.7459,3.22547 -2.63476,4.82422 -0.87237,1.57064 -1.70803,3.16926 -2.5918,4.73047 -0.74709,1.34049 -1.49272,2.68492 -2.23242,4.03125 -0.57723,1.03876 -1.14313,2.08577 -1.70703,3.13476 1.4058,2.41761 2.9867,4.599 4.66601,6.25977 0.0489,-0.0881 0.0955,-0.17765 0.14453,-0.26563 0.6165,-1.11936 1.2055,-2.27112 1.82422,-3.38867 0.68914,-1.22833 1.37371,-2.45898 2.04297,-3.70313 0.73423,-1.34604 1.46973,-2.68564 2.19727,-4.0371 0.84328,-1.59336 1.72864,-3.15436 2.58593,-4.73633 0.87242,-1.61569 1.74702,-3.22639 2.65625,-4.8125 0.76673,-1.37907 1.50784,-2.78741 2.25782,-4.17969 0.80728,-1.54001 1.56161,-3.11633 2.24023,-4.75195 1.0032,-2.32074 2.06438,-4.59064 3.22461,-6.79493 1.33807,-2.79042 2.61944,-5.62953 4.0293,-8.36523 1.10064,-2.1855 2.17221,-4.38848 3.19726,-6.63086 0.86012,4.44418 1.85714,8.86289 2.9336,13.26563 0.82186,3.46378 1.93435,6.8637 2.52734,10.37304 -0.0219,0.9282 0.79209,2.98723 0.33398,3.75977 -0.0679,0.11914 -0.20251,0.16641 -0.30664,0.24414 -1.10058,0.68701 -2.46811,0.83055 -3.7539,0.79101 -1.43473,0.01 -2.86765,0.10763 -4.24219,0.4668 -0.98563,0.41735 -1.58064,0.3908 -2.62109,0.28906 0.17713,0.0677 -0.14489,0.0654 -0.46289,0.0547 -0.78364,-0.0795 -2.04325,-0.27025 -2.35157,-0.26758 -0.56848,0.15578 -0.28499,0.0675 -0.85937,0.24414 l 6.19531,1.7168 c -0.23135,-0.0282 -0.5098,-0.0749 -3.63281,-0.47265 1.46119,0.19394 2.79986,0.4136 4.07617,0.5957 l 0.71289,0.19726 c 0.56402,-0.0838 0.28702,-0.0741 0.83594,-0.0625 0.92187,0.10085 1.83294,0.22313 2.80469,0.22461 0.92615,0.0383 1.75331,-0.26434 2.63281,-0.48437 1.37149,-0.2374 2.7576,-0.36908 4.16601,-0.35547 1.39883,-0.111 2.89103,-0.29692 3.88868,-1.44922 0.107,-0.21024 0.25101,-0.39671 0.32226,-0.62891 0.39367,-1.27753 -0.32329,-2.81175 -0.42187,-4.12695 -0.71236,-3.52935 -1.8962,-6.93925 -2.71485,-10.44531 -1.09921,-4.43065 -2.12532,-8.88372 -2.95703,-13.36524 -0.60773,-3.34165 -1.37453,-6.68972 -1.57812,-10.0625 l -0.008,-0.004 -0.22461,-0.0254 c 0.0746,-0.12716 0.13849,-0.26166 0.21485,-0.38672 l 0.004,-0.004 -7.05079,-2.0664 z"
         style="color:#000000;clip-rule:nonzero;display:inline;overflow:visible;visibility:visible;opacity:0.347;isolation:auto;mix-blend-mode:normal;color-interpolation:sRGB;color-interpolation-filters:linearRGB;solid-color:#000000;solid-opacity:1;fill:url(#linearGradient4818);fill-opacity:1;fill-rule:evenodd;stroke:none;stroke-width:1px;stroke-linecap:butt;stroke-linejoin:miter;stroke-miterlimit:4;stroke-dasharray:none;stroke-dashoffset:0;stroke-opacity:1;color-rendering:auto;image-rendering:auto;shape-rendering:auto;text-rendering:auto;enable-background:accumulate" />
    </g>
  </g>
</svg>
