Content-Type: text/x-zim-wiki
Wiki-Format: zim 0.4
Creation-Date: 2015-08-22T21:55:13+02:00

====== Le temps d'aimer ======

Auteur : Jean Humenry @a_jean_humenry 

===== Partitions =====
Carnet 2010: [[./Le temps d'aimer.pdf]]

===== Audio =====
