Content-Type: text/x-zim-wiki
Wiki-Format: zim 0.4
Creation-Date: 2015-08-22T22:08:33+02:00

====== Relation ======

Auteur : Ludovic Jaworski

@t_amour_du_prochain 

===== Partitions =====
Carnet 2010: [[./Relation.pdf]]

===== Audio =====
