Content-Type: text/x-zim-wiki
Wiki-Format: zim 0.4
Creation-Date: 2015-08-22T22:09:59+02:00

====== Ta parole dépasse mes rêves ======

Auteur : Sylvie Garoche et André Gaborit @a_sylvie_garoche @a_andré_gaborit 

@t_parole 

===== Partitions =====
Carnet 2010: [[./Ta parole dépasse mes rêves.pdf]]
Carnet 2011: [[./Ta parole dépasse mes rêves 2011.pdf]] et [[./Ta parole dépasse mes rêves.pdf]]

===== Audio =====
