Content-Type: text/x-zim-wiki
Wiki-Format: zim 0.4
Creation-Date: 2015-08-28T00:31:07+02:00

====== Être plus ======

Auteur : 
Album : 

===== Partitions =====
Partition : [[./etre-plus.pdf]] et [[./etre-plus.odt]]
Pour projeter : [[./Etre plus.pptx]]

===== Audio =====
